{
    "champions": [
    {
                  "name" : "Priest",
                  "spells": [
                  {
                             "name": "Binding",
                             "damage": 30,
                             "rootDuration": 2.5,
                             "mesh": 11
                  }
                ]
    }
    ]
}
